Sku,,Parent SKU,ROW,COLUMN,On Hand,Price,Our Price,UMAP,Supplier Code,Class,COLOR,Color Code,Description
20608008,20608008_B_5_,20608008,,,,160,,,HOKA,Neutral,,BWF,Bondi B 2
20608008.BWF,20608008.BWF_B_5.5_black/white/fushia,20608008,B,5,0,160.00,159.95,,HOKA,Neutral,black/white/fushia,BWF,Bondi B 2
20608008.BWF,20608008.BWF_B_6_black/white/fushia,20608008,B,5.5,0,160.00,159.95,,HOKA,Neutral,black/white/fushia,BWF,Bondi B 2
20608008.BWF,20608008.BWF_B_6.5_black/white/fushia,20608008,B,6,0,160.00,159.95,,HOKA,Neutral,black/white/fushia,BWF,Bondi B 2
20608008.BWF,20608008.BWF_B_7_black/white/fushia,20608008,B,6.5,1,160.00,159.95,,HOKA,Neutral,black/white/fushia,BWF,Bondi B 2
20608008.BWF,20608008.BWF_B_7.5_black/white/fushia,20608008,B,7,1,160.00,159.95,,HOKA,Neutral,black/white/fushia,BWF,Bondi B 2
20608008.BWF,20608008.BWF_B_8_black/white/fushia,20608008,B,7.5,2,160.00,159.95,,HOKA,Neutral,black/white/fushia,BWF,Bondi B 2
20608008.BWF,20608008.BWF_B_8.5_black/white/fushia,20608008,B,8,0,160.00,159.95,,HOKA,Neutral,black/white/fushia,BWF,Bondi B 2
20608008.BWF,20608008.BWF_B_9_black/white/fushia,20608008,B,8.5,1,160.00,159.95,,HOKA,Neutral,black/white/fushia,BWF,Bondi B 2
20608008.BWF,20608008.BWF_B_9.5_black/white/fushia,20608008,B,9,0,160.00,159.95,,HOKA,Neutral,black/white/fushia,BWF,Bondi B 2
20608008.BWF,20608008.BWF_B_10_black/white/fushia,20608008,B,9.5,2,160.00,159.95,,HOKA,Neutral,black/white/fushia,BWF,Bondi B 2
20608008.BWF,20608008.BWF_B_10.5_black/white/fushia,20608008,B,10,1,160.00,159.95,,HOKA,Neutral,black/white/fushia,BWF,Bondi B 2
20608008.BWF,20608008.BWF_B_11_black/white/fushia,20608008,B,10.5,0,160.00,159.95,,HOKA,Neutral,black/white/fushia,BWF,Bondi B 2
20608008.BWF,20608008.BWF___black/white/fushia,20608008,B,11,0,160.00,159.95,,HOKA,Neutral,black/white/fushia,BWF,Bondi B 2
30608008,30608008_D_4_,30608008,,,,160.00,159.95,,HOKA,Neutral,,BWR,Bondi B 2
30608008.BWR,30608008.BWR_D_4.5_Black/White/Red,30608008,D,4,0,160.00,159.95,,HOKA,Neutral,Black/White/Red,BWR,Bondi B 2
30608008.BWR,30608008.BWR_D_5_Black/White/Red,30608008,D,4.5,0,160.00,159.95,,HOKA,Neutral,Black/White/Red,BWR,Bondi B 2
30608008.BWR,30608008.BWR_D_5.5_Black/White/Red,30608008,D,5,0,160.00,159.95,,HOKA,Neutral,Black/White/Red,BWR,Bondi B 2
30608008.BWR,30608008.BWR_D_6_Black/White/Red,30608008,D,5.5,0,160.00,159.95,,HOKA,Neutral,Black/White/Red,BWR,Bondi B 2
30608008.BWR,30608008.BWR_D_6.5_Black/White/Red,30608008,D,6,0,160.00,159.95,,HOKA,Neutral,Black/White/Red,BWR,Bondi B 2
30608008.BWR,30608008.BWR_D_7_Black/White/Red,30608008,D,6.5,0,160.00,159.95,,HOKA,Neutral,Black/White/Red,BWR,Bondi B 2
30608008.BWR,30608008.BWR_D_7.5_Black/White/Red,30608008,D,7,0,160.00,159.95,,HOKA,Neutral,Black/White/Red,BWR,Bondi B 2
30608008.BWR,30608008.BWR_D_8_Black/White/Red,30608008,D,7.5,0,160.00,159.95,,HOKA,Neutral,Black/White/Red,BWR,Bondi B 2
30608008.BWR,30608008.BWR_D_8.5_Black/White/Red,30608008,D,8,1,160.00,159.95,,HOKA,Neutral,Black/White/Red,BWR,Bondi B 2
30608008.BWR,30608008.BWR_D_9_Black/White/Red,30608008,D,8.5,1,160.00,159.95,,HOKA,Neutral,Black/White/Red,BWR,Bondi B 2
30608008.BWR,30608008.BWR_D_9.5_Black/White/Red,30608008,D,9,2,160.00,159.95,,HOKA,Neutral,Black/White/Red,BWR,Bondi B 2
30608008.BWR,30608008.BWR_D_10_Black/White/Red,30608008,D,9.5,1,160.00,159.95,,HOKA,Neutral,Black/White/Red,BWR,Bondi B 2
30608008.BWR,30608008.BWR_D_10.5_Black/White/Red,30608008,D,10,2,160.00,159.95,,HOKA,Neutral,Black/White/Red,BWR,Bondi B 2
30608008.BWR,30608008.BWR_D_11_Black/White/Red,30608008,D,10.5,1,160.00,159.95,,HOKA,Neutral,Black/White/Red,BWR,Bondi B 2
30608008.BWR,30608008.BWR_D_11.5_Black/White/Red,30608008,D,11,1,160.00,159.95,,HOKA,Neutral,Black/White/Red,BWR,Bondi B 2
30608008.BWR,30608008.BWR_D_12_Black/White/Red,30608008,D,11.5,2,160.00,159.95,,HOKA,Neutral,Black/White/Red,BWR,Bondi B 2
30608008.BWR,30608008.BWR_D_12.5_Black/White/Red,30608008,D,12,1,160.00,159.95,,HOKA,Neutral,Black/White/Red,BWR,Bondi B 2
30608008.BWR,30608008.BWR_D_13_Black/White/Red,30608008,D,12.5,0,160.00,159.95,,HOKA,Neutral,Black/White/Red,BWR,Bondi B 2
30608008.BWR,30608008.BWR_D_14_Black/White/Red,30608008,D,13,0,160.00,159.95,,HOKA,Neutral,Black/White/Red,BWR,Bondi B 2
30608008.BWR,30608008.BWR___Black/White/Red,30608008,D,14,0,160.00,159.95,,HOKA,Neutral,Black/White/Red,BWR,Bondi B 2
