user_login,reward_points
lalnouri@gmu.edu,6
andres004@gmail.com,9
vinicios_amaral@hotmail.com,38
aaldenberg@aol.com,6
Aareskjold@gmail.com,14
jaaron06@comcast.net,0
carwilel@nsula.edu,9
sarahscanorama@hotmail.com,26
kenabad30@gmail.com,7
