SKU,STYLE/COLOR
10175-1,black/citron/pink
10175-1,black/citron/pink
10175-1,black/citron/pink
10175-1,black/citron/pink
10175-1,black/citron/pink
10175-1,black/citron/pink
10175-1,black/citron/pink
10175-1,black/citron/pink
10175-1,black/citron/pink
10175-1,black/citron/pink
10175-1,black/citron/pink
10175-1,black/citron/pink
10175-1,black/citron/pink
10175-1,black/citron/pink
10175-1,black/citron/pink
10175-3,grey/pink
10175-3,grey/pink
10175-3,grey/pink
10175-3,grey/pink
10175-3,grey/pink
10175-3,grey/pink
10175-3,grey/pink
10175-3,grey/pink
10175-3,grey/pink
10175-3,grey/pink
10175-3,grey/pink
10175-3,grey/pink
10175-3,grey/pink
10175-3,grey/pink
10175-3,grey/pink
10175-4,orange/red
10175-4,orange/red
10175-4,orange/red
10175-4,orange/red
10175-4,orange/red
10175-4,orange/red
10175-4,orange/red
10175-4,orange/red
10175-4,orange/red
10175-4,orange/red
10175-4,orange/red
10175-4,orange/red
10175-4,orange/red
10175-4,orange/red
10175-4,orange/red
10176-4,silver/purple/green
10176-4,silver/purple/green
10176-4,silver/purple/green
10176-4,silver/purple/green
10176-4,silver/purple/green
10176-4,silver/purple/green
10176-4,silver/purple/green
10176-4,silver/purple/green
10176-4,silver/purple/green
10176-4,silver/purple/green
10176-4,silver/purple/green
10176-4,silver/purple/green
10176-4,silver/purple/green
10176-4,silver/purple/green
10176-4,silver/purple/green
10178-2,silver/green/pink
10178-2,silver/green/pink
10178-2,silver/green/pink
10178-2,silver/green/pink
10178-2,silver/green/pink
10178-2,silver/green/pink
10178-2,silver/green/pink
10178-2,silver/green/pink
10178-2,silver/green/pink
10178-2,silver/green/pink
10178-2,silver/green/pink
10178-2,silver/green/pink
10178-2,silver/green/pink
10178-2,silver/green/pink
10178-2,silver/green/pink
10179-1,white/silver
10179-1,white/silver
10179-1,white/silver
10179-1,white/silver
10179-1,white/silver
10179-1,white/silver
10179-1,white/silver
10179-1,white/silver
10179-1,white/silver
10179-1,white/silver
10179-1,white/silver
10179-1,white/silver
10179-1,white/silver
10179-1,white/silver
10179-1,white/silver
10179-3,black/purple/citron
10179-3,black/purple/citron
10179-3,black/purple/citron
10179-3,black/purple/citron
10179-3,black/purple/citron
10179-3,black/purple/citron
10179-3,black/purple/citron
10179-3,black/purple/citron
10179-3,black/purple/citron
10179-3,black/purple/citron
10179-3,black/purple/citron
10179-3,black/purple/citron
10179-3,black/purple/citron
10179-3,black/purple/citron
10179-3,black/purple/citron
10179-5,White/Black/Purple
10179-5,White/Black/Purple
10179-5,White/Black/Purple
10179-5,White/Black/Purple
10179-5,White/Black/Purple
10179-5,White/Black/Purple
10179-5,White/Black/Purple
10179-5,White/Black/Purple
10179-5,White/Black/Purple
10179-5,White/Black/Purple
10179-5,White/Black/Purple
10179-5,White/Black/Purple
10179-5,White/Black/Purple
10179-5,White/Black/Purple
10179-5,White/Black/Purple
10179-7,grey/vizipro pink/citron
10179-7,grey/vizipro pink/citron
10179-7,grey/vizipro pink/citron
10179-7,grey/vizipro pink/citron
10179-7,grey/vizipro pink/citron
10179-7,grey/vizipro pink/citron
10179-7,grey/vizipro pink/citron
10179-7,grey/vizipro pink/citron
10179-7,grey/vizipro pink/citron
10179-7,grey/vizipro pink/citron
10179-7,grey/vizipro pink/citron
10179-7,grey/vizipro pink/citron
10179-7,grey/vizipro pink/citron
10179-7,grey/vizipro pink/citron
10179-7,grey/vizipro pink/citron
10180-1,White/Silver/Blue
10180-1,White/Silver/Blue
10180-1,White/Silver/Blue
10180-1,White/Silver/Blue
10180-1,White/Silver/Blue
10180-1,White/Silver/Blue
10180-1,White/Silver/Blue
10180-1,White/Silver/Blue
10180-1,White/Silver/Blue
10180-1,White/Silver/Blue
10180-1,White/Silver/Blue
10180-1,White/Silver/Blue
10180-1,White/Silver/Blue
10180-1,White/Silver/Blue
10180-1,White/Silver/Blue
10180-2,silver/red/orange
10180-2,silver/red/orange
10180-2,silver/red/orange
10180-2,silver/red/orange
10180-2,silver/red/orange
10180-2,silver/red/orange
10180-2,silver/red/orange
10180-2,silver/red/orange
10180-2,silver/red/orange
10180-2,silver/red/orange
10180-2,silver/red/orange
10180-2,silver/red/orange
10180-2,silver/red/orange
10180-2,silver/red/orange
10180-2,silver/red/orange
10194-2,silver/green/pink
10194-2,silver/green/pink
10194-2,silver/green/pink
10194-2,silver/green/pink
10194-2,silver/green/pink
10194-2,silver/green/pink
10194-2,silver/green/pink
10194-2,silver/green/pink
10194-2,silver/green/pink
10194-2,silver/green/pink
10194-2,silver/green/pink
10194-2,silver/green/pink
10194-2,silver/green/pink
10194-2,silver/green/pink
10194-2,silver/green/pink
10197-3,citron/black/pink
10197-3,citron/black/pink
10197-3,citron/black/pink
10197-3,citron/black/pink
10197-3,citron/black/pink
10197-3,citron/black/pink
10197-3,citron/black/pink
10197-3,citron/black/pink
10197-3,citron/black/pink
10197-3,citron/black/pink
10197-3,citron/black/pink
10197-3,citron/black/pink
10197-3,citron/black/pink
10197-3,citron/black/pink
10197-3,citron/black/pink
10197-4,blue/orange
10197-4,blue/orange
10197-4,blue/orange
10197-4,blue/orange
10197-4,blue/orange
10197-4,blue/orange
10197-4,blue/orange
10197-4,blue/orange
10197-4,blue/orange
10197-4,blue/orange
10197-4,blue/orange
10197-4,blue/orange
10197-4,blue/orange
10197-4,blue/orange
10197-4,blue/orange
10197-5,Black/Pink
10197-5,Black/Pink
10197-5,Black/Pink
10197-5,Black/Pink
10197-5,Black/Pink
10197-5,Black/Pink
10197-5,Black/Pink
10197-5,Black/Pink
10197-5,Black/Pink
10197-5,Black/Pink
10197-5,Black/Pink
10197-5,Black/Pink
10197-5,Black/Pink
10197-5,Black/Pink
10197-5,Black/Pink
10200-1,silver/blue/citron
10200-1,silver/blue/citron
10200-1,silver/blue/citron
10200-1,silver/blue/citron
10200-1,silver/blue/citron
10200-1,silver/blue/citron
10200-1,silver/blue/citron
10200-1,silver/blue/citron
10200-1,silver/blue/citron
10200-1,silver/blue/citron
10200-1,silver/blue/citron
10200-1,silver/blue/citron
10200-1,silver/blue/citron
10200-1,silver/blue/citron
10200-1,silver/blue/citron
10200-3,citron/pink/blue
10200-3,citron/pink/blue
10200-3,citron/pink/blue
10200-3,citron/pink/blue
10200-3,citron/pink/blue
10200-3,citron/pink/blue
10200-3,citron/pink/blue
10200-3,citron/pink/blue
10200-3,citron/pink/blue
10200-3,citron/pink/blue
10200-3,citron/pink/blue
10200-3,citron/pink/blue
10200-3,citron/pink/blue
10200-3,citron/pink/blue
10200-3,citron/pink/blue
10200-4,grey/purple/cor
10200-4,grey/purple/cor
10200-4,grey/purple/cor
10200-4,grey/purple/cor
10200-4,grey/purple/cor
10200-4,grey/purple/cor
10200-4,grey/purple/cor
10200-4,grey/purple/cor
10200-4,grey/purple/cor
10200-4,grey/purple/cor
10200-4,grey/purple/cor
10200-4,grey/purple/cor
10200-4,grey/purple/cor
10200-4,grey/purple/cor
10200-4,grey/purple/cor
10201-4,grey/purple/cor
10201-4,grey/purple/cor
10201-4,grey/purple/cor
10201-4,grey/purple/cor
10201-4,grey/purple/cor
10201-4,grey/purple/cor
10201-4,grey/purple/cor
10201-4,grey/purple/cor
10201-4,grey/purple/cor
10201-4,grey/purple/cor
10201-4,grey/purple/cor
10201-4,grey/purple/cor
10201-4,grey/purple/cor
10201-4,grey/purple/cor
10201-4,grey/purple/cor
10206-1,white/blue/pink
10206-1,white/blue/pink
10206-1,white/blue/pink
10206-1,white/blue/pink
10206-1,white/blue/pink
10206-1,white/blue/pink
10206-1,white/blue/pink
10206-1,white/blue/pink
10206-1,white/blue/pink
10206-1,white/blue/pink
10206-1,white/blue/pink
10206-1,white/blue/pink
10206-1,white/blue/pink
10206-1,white/blue/pink
10206-1,white/blue/pink
10206-2,grey/purple/citron
10206-2,grey/purple/citron
10206-2,grey/purple/citron
10206-2,grey/purple/citron
10206-2,grey/purple/citron
10206-2,grey/purple/citron
10206-2,grey/purple/citron
10206-2,grey/purple/citron
10206-2,grey/purple/citron
10206-2,grey/purple/citron
10206-2,grey/purple/citron
10206-2,grey/purple/citron
10206-2,grey/purple/citron
10206-2,grey/purple/citron
10206-2,grey/purple/citron
10207-2,grey/purple/citron
10207-2,grey/purple/citron
10207-2,grey/purple/citron
10207-2,grey/purple/citron
10207-2,grey/purple/citron
10207-2,grey/purple/citron
10207-2,grey/purple/citron
10207-2,grey/purple/citron
10207-2,grey/purple/citron
10207-2,grey/purple/citron
10207-2,grey/purple/citron
10207-2,grey/purple/citron
10207-2,grey/purple/citron
10207-2,grey/purple/citron
10207-2,grey/purple/citron
20144-3,BLUE/WHITE
20144-3,BLUE/WHITE
20144-3,BLUE/WHITE
20144-3,BLUE/WHITE
20144-3,BLUE/WHITE
20144-3,BLUE/WHITE
20144-3,BLUE/WHITE
20144-3,BLUE/WHITE
20144-3,BLUE/WHITE
20144-3,BLUE/WHITE
20144-3,BLUE/WHITE
20144-3,BLUE/WHITE
20144-3,BLUE/WHITE
20144-3,BLUE/WHITE
20144-5,citron/blue/white
20144-5,citron/blue/white
20144-5,citron/blue/white
20144-5,citron/blue/white
20144-5,citron/blue/white
20144-5,citron/blue/white
20144-5,citron/blue/white
20144-5,citron/blue/white
20144-5,citron/blue/white
20144-5,citron/blue/white
20144-5,citron/blue/white
20144-5,citron/blue/white
20144-5,citron/blue/white
20144-5,citron/blue/white
20156-1,white/silver/red
20156-1,white/silver/red
20156-1,white/silver/red
20156-1,white/silver/red
20156-1,white/silver/red
20156-1,white/silver/red
20156-1,white/silver/red
20156-1,white/silver/red
20156-1,white/silver/red
20156-1,white/silver/red
20156-1,white/silver/red
20156-1,white/silver/red
20156-1,white/silver/red
20156-1,white/silver/red
20156-1,white/silver/red
20156-6,grey/black/orange
20156-6,grey/black/orange
20156-6,grey/black/orange
20156-6,grey/black/orange
20156-6,grey/black/orange
20156-6,grey/black/orange
20156-6,grey/black/orange
20156-6,grey/black/orange
20156-6,grey/black/orange
20156-6,grey/black/orange
20156-6,grey/black/orange
20156-6,grey/black/orange
20156-6,grey/black/orange
20156-6,grey/black/orange
20156-6,grey/black/orange
20156-7,red/citron
20156-7,red/citron
20156-7,red/citron
20156-7,red/citron
20156-7,red/citron
20156-7,red/citron
20156-7,red/citron
20156-7,red/citron
20156-7,red/citron
20156-7,red/citron
20156-7,red/citron
20156-7,red/citron
20156-7,red/citron
20156-7,red/citron
20156-7,red/citron
20168-1,white/silver/red
20168-1,white/silver/red
20168-1,white/silver/red
20168-1,white/silver/red
20168-1,white/silver/red
20168-1,white/silver/red
20168-1,white/silver/red
20168-1,white/silver/red
20168-1,white/silver/red
20168-1,white/silver/red
20168-1,white/silver/red
20168-1,white/silver/red
20168-1,white/silver/red
20168-1,white/silver/red
20168-1,white/silver/red
20175-1,black/red/citron
20175-1,black/red/citron
20175-1,black/red/citron
20175-1,black/red/citron
20175-1,black/red/citron
20175-1,black/red/citron
20175-1,black/red/citron
20175-1,black/red/citron
20175-1,black/red/citron
20175-1,black/red/citron
20175-1,black/red/citron
20175-1,black/red/citron
20175-1,black/red/citron
20175-1,black/red/citron
20175-1,black/red/citron
20176-2,gray/red/viz
20176-2,gray/red/viz
20176-2,gray/red/viz
20176-2,gray/red/viz
20176-2,gray/red/viz
20176-2,gray/red/viz
20176-2,gray/red/viz
20176-2,gray/red/viz
20176-2,gray/red/viz
20176-2,gray/red/viz
20176-2,gray/red/viz
20176-2,gray/red/viz
20176-2,gray/red/viz
20176-2,gray/red/viz
20176-2,gray/red/viz
20176-4,silver/black/orange
20176-4,silver/black/orange
20176-4,silver/black/orange
20176-4,silver/black/orange
20176-4,silver/black/orange
20176-4,silver/black/orange
20176-4,silver/black/orange
20176-4,silver/black/orange
20176-4,silver/black/orange
20176-4,silver/black/orange
20176-4,silver/black/orange
20176-4,silver/black/orange
20176-4,silver/black/orange
20176-4,silver/black/orange
20176-4,silver/black/orange
20178-2,silver/blue/yellow
20178-2,silver/blue/yellow
20178-2,silver/blue/yellow
20178-2,silver/blue/yellow
20178-2,silver/blue/yellow
20178-2,silver/blue/yellow
20178-2,silver/blue/yellow
20178-2,silver/blue/yellow
20178-2,silver/blue/yellow
20178-2,silver/blue/yellow
20178-2,silver/blue/yellow
20178-2,silver/blue/yellow
20178-2,silver/blue/yellow
20178-2,silver/blue/yellow
20178-2,silver/blue/yellow
20178-3,black/orange
20178-3,black/orange
20178-3,black/orange
20178-3,black/orange
20178-3,black/orange
20178-3,black/orange
20178-3,black/orange
20178-3,black/orange
20178-3,black/orange
20178-3,black/orange
20178-3,black/orange
20178-3,black/orange
20178-3,black/orange
20178-3,black/orange
20178-3,black/orange
20178-5,White/Black/Green
20178-5,White/Black/Green
20178-5,White/Black/Green
20178-5,White/Black/Green
20178-5,White/Black/Green
20178-5,White/Black/Green
20178-5,White/Black/Green
20178-5,White/Black/Green
20178-5,White/Black/Green
20178-5,White/Black/Green
20178-5,White/Black/Green
20178-5,White/Black/Green
20178-5,White/Black/Green
20178-5,White/Black/Green
20178-5,White/Black/Green
20179-1,White/Blue
20179-1,White/Blue
20179-1,White/Blue
20179-1,White/Blue
20179-1,White/Blue
20179-1,White/Blue
20179-1,White/Blue
20179-1,White/Blue
20179-1,White/Blue
20179-1,White/Blue
20179-1,White/Blue
20179-1,White/Blue
20179-1,White/Blue
20179-1,White/Blue
20179-1,White/Blue
20179-1,White/Blue
20179-2,silver/red/citron
20179-2,silver/red/citron
20179-2,silver/red/citron
20179-2,silver/red/citron
20179-2,silver/red/citron
20179-2,silver/red/citron
20179-2,silver/red/citron
20179-2,silver/red/citron
20179-2,silver/red/citron
20179-2,silver/red/citron
20179-2,silver/red/citron
20179-2,silver/red/citron
20179-2,silver/red/citron
20179-2,silver/red/citron
20179-2,silver/red/citron
20180-1,White/Blue
20180-1,White/Blue
20180-1,White/Blue
20180-1,White/Blue
20180-1,White/Blue
20180-1,White/Blue
20180-1,White/Blue
20180-1,White/Blue
20180-1,White/Blue
20180-1,White/Blue
20180-1,White/Blue
20180-1,White/Blue
20180-1,White/Blue
20180-1,White/Blue
20180-1,White/Blue
20180-2,silver/red/citron
20180-2,silver/red/citron
20180-2,silver/red/citron
20180-2,silver/red/citron
20180-2,silver/red/citron
20180-2,silver/red/citron
20180-2,silver/red/citron
20180-2,silver/red/citron
20180-2,silver/red/citron
20180-2,silver/red/citron
20180-2,silver/red/citron
20180-2,silver/red/citron
20180-2,silver/red/citron
20180-2,silver/red/citron
20180-2,silver/red/citron
20181-2,silver/red/citron
20181-2,silver/red/citron
20181-2,silver/red/citron
20181-2,silver/red/citron
20181-2,silver/red/citron
20181-2,silver/red/citron
20181-2,silver/red/citron
20181-2,silver/red/citron
20181-2,silver/red/citron
20181-2,silver/red/citron
20181-2,silver/red/citron
20181-2,silver/red/citron
20181-2,silver/red/citron
20181-2,silver/red/citron
20181-2,silver/red/citron
20181-2,silver/red/citron
20197-2,citron/black/green
20197-2,citron/black/green
20197-2,citron/black/green
20197-2,citron/black/green
20197-2,citron/black/green
20197-2,citron/black/green
20197-2,citron/black/green
20197-2,citron/black/green
20197-2,citron/black/green
20197-2,citron/black/green
20197-2,citron/black/green
20197-2,citron/black/green
20197-2,citron/black/green
20197-2,citron/black/green
20197-2,citron/black/green
20197-3,blue/black/slm
20197-3,blue/black/slm
20197-3,blue/black/slm
20197-3,blue/black/slm
20197-3,blue/black/slm
20197-3,blue/black/slm
20197-3,blue/black/slm
20197-3,blue/black/slm
20197-3,blue/black/slm
20197-3,blue/black/slm
20197-3,blue/black/slm
20197-3,blue/black/slm
20197-3,blue/black/slm
20197-3,blue/black/slm
20197-3,blue/black/slm
20197-4,red/black/citron
20197-4,red/black/citron
20197-4,red/black/citron
20197-4,red/black/citron
20197-4,red/black/citron
20197-4,red/black/citron
20197-4,red/black/citron
20197-4,red/black/citron
20197-4,red/black/citron
20197-4,red/black/citron
20197-4,red/black/citron
20197-4,red/black/citron
20197-4,red/black/citron
20197-4,red/black/citron
20197-4,red/black/citron
20197-5,grey/yellow/black
20197-5,grey/yellow/black
20197-5,grey/yellow/black
20197-5,grey/yellow/black
20197-5,grey/yellow/black
20197-5,grey/yellow/black
20197-5,grey/yellow/black
20197-5,grey/yellow/black
20197-5,grey/yellow/black
20197-5,grey/yellow/black
20197-5,grey/yellow/black
20197-5,grey/yellow/black
20197-5,grey/yellow/black
20197-5,grey/yellow/black
20197-5,grey/yellow/black
20200-1,White/Red/Black
20200-1,White/Red/Black
20200-1,White/Red/Black
20200-1,White/Red/Black
20200-1,White/Red/Black
20200-1,White/Red/Black
20200-1,White/Red/Black
20200-1,White/Red/Black
20200-1,White/Red/Black
20200-1,White/Red/Black
20200-1,White/Red/Black
20200-1,White/Red/Black
20200-1,White/Red/Black
20200-1,White/Red/Black
20200-1,White/Red/Black
20200-2,blue/yellow/black
20200-2,blue/yellow/black
20200-2,blue/yellow/black
20200-2,blue/yellow/black
20200-2,blue/yellow/black
20200-2,blue/yellow/black
20200-2,blue/yellow/black
20200-2,blue/yellow/black
20200-2,blue/yellow/black
20200-2,blue/yellow/black
20200-2,blue/yellow/black
20200-2,blue/yellow/black
20200-2,blue/yellow/black
20200-2,blue/yellow/black
20200-2,blue/yellow/black
20200-4,grey/green/citron
20200-4,grey/green/citron
20200-4,grey/green/citron
20200-4,grey/green/citron
20200-4,grey/green/citron
20200-4,grey/green/citron
20200-4,grey/green/citron
20200-4,grey/green/citron
20200-4,grey/green/citron
20200-4,grey/green/citron
20200-4,grey/green/citron
20200-4,grey/green/citron
20200-4,grey/green/citron
20200-4,grey/green/citron
20200-4,grey/green/citron
20206-1,White/Black/Red
20206-1,White/Black/Red
20206-1,White/Black/Red
20206-1,White/Black/Red
20206-1,White/Black/Red
20206-1,White/Black/Red
20206-1,White/Black/Red
20206-1,White/Black/Red
20206-1,White/Black/Red
20206-1,White/Black/Red
20206-1,White/Black/Red
20206-1,White/Black/Red
20206-1,White/Black/Red
20206-1,White/Black/Red
20206-1,White/Black/Red
20206-2,grey/blue/yellow
20206-2,grey/blue/yellow
20206-2,grey/blue/yellow
20206-2,grey/blue/yellow
20206-2,grey/blue/yellow
20206-2,grey/blue/yellow
20206-2,grey/blue/yellow
20206-2,grey/blue/yellow
20206-2,grey/blue/yellow
20206-2,grey/blue/yellow
20206-2,grey/blue/yellow
20206-2,grey/blue/yellow
20206-2,grey/blue/yellow
20206-2,grey/blue/yellow
20206-2,grey/blue/yellow
20207-2,grey/blue/yellow
20207-2,grey/blue/yellow
20207-2,grey/blue/yellow
20207-2,grey/blue/yellow
20207-2,grey/blue/yellow
20207-2,grey/blue/yellow
20207-2,grey/blue/yellow
20207-2,grey/blue/yellow
20207-2,grey/blue/yellow
20207-2,grey/blue/yellow
20207-2,grey/blue/yellow
20207-2,grey/blue/yellow
20207-2,grey/blue/yellow
20207-2,grey/blue/yellow
20207-2,grey/blue/yellow
